%!PS-Adobe-3.0
%%Creator: graphviz version 2.26.3 (20100126.1600)
%%Title: architecture
%%Pages: (atend)
%%BoundingBox: (atend)
%%EndComments
save
%%BeginProlog
/DotDict 200 dict def
DotDict begin

/setupLatin1 {
mark
/EncodingVector 256 array def
 EncodingVector 0

ISOLatin1Encoding 0 255 getinterval putinterval
EncodingVector 45 /hyphen put

% Set up ISO Latin 1 character encoding
/starnetISO {
        dup dup findfont dup length dict begin
        { 1 index /FID ne { def }{ pop pop } ifelse
        } forall
        /Encoding EncodingVector def
        currentdict end definefont
} def
/Times-Roman starnetISO def
/Times-Italic starnetISO def
/Times-Bold starnetISO def
/Times-BoldItalic starnetISO def
/Helvetica starnetISO def
/Helvetica-Oblique starnetISO def
/Helvetica-Bold starnetISO def
/Helvetica-BoldOblique starnetISO def
/Courier starnetISO def
/Courier-Oblique starnetISO def
/Courier-Bold starnetISO def
/Courier-BoldOblique starnetISO def
cleartomark
} bind def

%%BeginResource: procset graphviz 0 0
/coord-font-family /Times-Roman def
/default-font-family /Times-Roman def
/coordfont coord-font-family findfont 8 scalefont def

/InvScaleFactor 1.0 def
/set_scale {
       dup 1 exch div /InvScaleFactor exch def
       scale
} bind def

% styles
/solid { [] 0 setdash } bind def
/dashed { [9 InvScaleFactor mul dup ] 0 setdash } bind def
/dotted { [1 InvScaleFactor mul 6 InvScaleFactor mul] 0 setdash } bind def
/invis {/fill {newpath} def /stroke {newpath} def /show {pop newpath} def} bind def
/bold { 2 setlinewidth } bind def
/filled { } bind def
/unfilled { } bind def
/rounded { } bind def
/diagonals { } bind def

% hooks for setting color 
/nodecolor { sethsbcolor } bind def
/edgecolor { sethsbcolor } bind def
/graphcolor { sethsbcolor } bind def
/nopcolor {pop pop pop} bind def

/beginpage {	% i j npages
	/npages exch def
	/j exch def
	/i exch def
	/str 10 string def
	npages 1 gt {
		gsave
			coordfont setfont
			0 0 moveto
			(\() show i str cvs show (,) show j str cvs show (\)) show
		grestore
	} if
} bind def

/set_font {
	findfont exch
	scalefont setfont
} def

% draw text fitted to its expected width
/alignedtext {			% width text
	/text exch def
	/width exch def
	gsave
		width 0 gt {
			[] 0 setdash
			text stringwidth pop width exch sub text length div 0 text ashow
		} if
	grestore
} def

/boxprim {				% xcorner ycorner xsize ysize
		4 2 roll
		moveto
		2 copy
		exch 0 rlineto
		0 exch rlineto
		pop neg 0 rlineto
		closepath
} bind def

/ellipse_path {
	/ry exch def
	/rx exch def
	/y exch def
	/x exch def
	matrix currentmatrix
	newpath
	x y translate
	rx ry scale
	0 0 1 0 360 arc
	setmatrix
} bind def

/endpage { showpage } bind def
/showpage { } def

/layercolorseq
	[	% layer color sequence - darkest to lightest
		[0 0 0]
		[.2 .8 .8]
		[.4 .8 .8]
		[.6 .8 .8]
		[.8 .8 .8]
	]
def

/layerlen layercolorseq length def

/setlayer {/maxlayer exch def /curlayer exch def
	layercolorseq curlayer 1 sub layerlen mod get
	aload pop sethsbcolor
	/nodecolor {nopcolor} def
	/edgecolor {nopcolor} def
	/graphcolor {nopcolor} def
} bind def

/onlayer { curlayer ne {invis} if } def

/onlayers {
	/myupper exch def
	/mylower exch def
	curlayer mylower lt
	curlayer myupper gt
	or
	{invis} if
} def

/curlayer 0 def

%%EndResource
%%EndProlog
%%BeginSetup
14 default-font-family set_font
1 setmiterlimit
% /arrowlength 10 def
% /arrowwidth 5 def

% make sure pdfmark is harmless for PS-interpreters other than Distiller
/pdfmark where {pop} {userdict /pdfmark /cleartomark load put} ifelse
% make '<<' and '>>' safe on PS Level 1 devices
/languagelevel where {pop languagelevel}{1} ifelse
2 lt {
    userdict (<<) cvn ([) cvn load put
    userdict (>>) cvn ([) cvn load put
} if

%%EndSetup
setupLatin1
%%Page: 1 1
%%PageBoundingBox: 36 36 576 492
%%PageOrientation: Landscape
0 0 1 beginpage
gsave
36 36 540 456 boxprim clip newpath
0.838509 0.838509 set_scale 90 rotate 46.9333 -682.933 translate
% clusterarchitecture_crossbar
gsave
1 setlinewidth
0 0 0 graphcolor
newpath 8 235 moveto
8 449 lineto
230 449 lineto
230 235 lineto
closepath stroke
grestore
% clusterarchitecture_VB0
gsave
1 setlinewidth
0 0 0 graphcolor
newpath 250 484 moveto
250 590 lineto
528 590 lineto
528 484 lineto
closepath stroke
grestore
% clusterarchitecture_VB1
gsave
1 setlinewidth
0 0 0 graphcolor
newpath 250 370 moveto
250 476 lineto
528 476 lineto
528 370 lineto
closepath stroke
grestore
% clusterarchitecture_VB2
gsave
1 setlinewidth
0 0 0 graphcolor
newpath 250 208 moveto
250 314 lineto
528 314 lineto
528 208 lineto
closepath stroke
grestore
% clusterarchitecture_VB3
gsave
1 setlinewidth
0 0 0 graphcolor
newpath 250 46 moveto
250 152 lineto
528 152 lineto
528 46 lineto
closepath stroke
grestore
% architecture_P0
gsave
1 setlinewidth
solid
0 0 0 nodecolor
319 618 27 18.38 ellipse_path stroke
0 0 0 nodecolor
14 /Times-Roman set_font
309.5 614.4 moveto 19 (P0) alignedtext
grestore
% architecture_bus0
gsave
1 setlinewidth
solid
0 0 0 nodecolor
468 617 34.86 18.38 ellipse_path stroke
0 0 0 nodecolor
14 /Times-Roman set_font
451 613.4 moveto 34 (bus0) alignedtext
grestore
% architecture_P0->architecture_bus0
gsave
1 setlinewidth
solid
0 0 0 edgecolor
newpath 346.33 617.82 moveto
367.5 617.67 397.31 617.47 422.12 617.31 curveto
stroke
0 0 0 edgecolor
newpath 422.43 620.81 moveto
432.41 617.24 lineto
422.38 613.81 lineto
closepath fill
1 setlinewidth
solid
0 0 0 edgecolor
newpath 422.43 620.81 moveto
432.41 617.24 lineto
422.38 613.81 lineto
closepath stroke
grestore
% architecture_P1
gsave
1 setlinewidth
solid
0 0 0 nodecolor
319 342 27 18.38 ellipse_path stroke
0 0 0 nodecolor
14 /Times-Roman set_font
309.5 338.4 moveto 19 (P1) alignedtext
grestore
% architecture_bus1
gsave
1 setlinewidth
solid
0 0 0 nodecolor
468 342 34.86 18.38 ellipse_path stroke
0 0 0 nodecolor
14 /Times-Roman set_font
451 338.4 moveto 34 (bus1) alignedtext
grestore
% architecture_P1->architecture_bus1
gsave
1 setlinewidth
solid
0 0 0 edgecolor
newpath 346.33 342 moveto
367.5 342 397.31 342 422.12 342 curveto
stroke
0 0 0 edgecolor
newpath 422.41 345.5 moveto
432.41 342 lineto
422.41 338.5 lineto
closepath fill
1 setlinewidth
solid
0 0 0 edgecolor
newpath 422.41 345.5 moveto
432.41 342 lineto
422.41 338.5 lineto
closepath stroke
grestore
% architecture_P2
gsave
1 setlinewidth
solid
0 0 0 nodecolor
319 180 27 18.38 ellipse_path stroke
0 0 0 nodecolor
14 /Times-Roman set_font
309.5 176.4 moveto 19 (P2) alignedtext
grestore
% architecture_bus2
gsave
1 setlinewidth
solid
0 0 0 nodecolor
468 180 34.86 18.38 ellipse_path stroke
0 0 0 nodecolor
14 /Times-Roman set_font
451 176.4 moveto 34 (bus2) alignedtext
grestore
% architecture_P2->architecture_bus2
gsave
1 setlinewidth
solid
0 0 0 edgecolor
newpath 346.33 180 moveto
367.5 180 397.31 180 422.12 180 curveto
stroke
0 0 0 edgecolor
newpath 422.41 183.5 moveto
432.41 180 lineto
422.41 176.5 lineto
closepath fill
1 setlinewidth
solid
0 0 0 edgecolor
newpath 422.41 183.5 moveto
432.41 180 lineto
422.41 176.5 lineto
closepath stroke
grestore
% architecture_P3
gsave
1 setlinewidth
solid
0 0 0 nodecolor
319 18 27 18.38 ellipse_path stroke
0 0 0 nodecolor
14 /Times-Roman set_font
309.5 14.4 moveto 19 (P3) alignedtext
grestore
% architecture_bus3
gsave
1 setlinewidth
solid
0 0 0 nodecolor
468 19 34.86 18.38 ellipse_path stroke
0 0 0 nodecolor
14 /Times-Roman set_font
451 15.4 moveto 34 (bus3) alignedtext
grestore
% architecture_P3->architecture_bus3
gsave
1 setlinewidth
solid
0 0 0 edgecolor
newpath 346.33 18.18 moveto
367.5 18.33 397.31 18.53 422.12 18.69 curveto
stroke
0 0 0 edgecolor
newpath 422.38 22.19 moveto
432.41 18.76 lineto
422.43 15.19 lineto
closepath fill
1 setlinewidth
solid
0 0 0 edgecolor
newpath 422.38 22.19 moveto
432.41 18.76 lineto
422.43 15.19 lineto
closepath stroke
grestore
% architecture_crossbar_arbiter
gsave
1 setlinewidth
solid
0 0 0 nodecolor
61 342 44.05 18.38 ellipse_path stroke
0 0 0 nodecolor
14 /Times-Roman set_font
37.5 338.4 moveto 47 (arbiter) alignedtext
grestore
% architecture_crossbar_mux0
gsave
1 setlinewidth
solid
0 0 0 nodecolor
182 423 39.1 18.38 ellipse_path stroke
0 0 0 nodecolor
14 /Times-Roman set_font
162 419.4 moveto 40 (mux0) alignedtext
grestore
% architecture_crossbar_arbiter->architecture_crossbar_mux0
gsave
1 setlinewidth
solid
0 0 0 edgecolor
newpath 84.04 357.43 moveto
103 370.12 130.05 388.23 150.93 402.2 curveto
stroke
0 0 0 edgecolor
newpath 149.19 405.25 moveto
159.45 407.91 lineto
153.09 399.43 lineto
closepath fill
1 setlinewidth
solid
0 0 0 edgecolor
newpath 149.19 405.25 moveto
159.45 407.91 lineto
153.09 399.43 lineto
closepath stroke
grestore
% architecture_crossbar_mux1
gsave
1 setlinewidth
solid
0 0 0 nodecolor
182 369 39.1 18.38 ellipse_path stroke
0 0 0 nodecolor
14 /Times-Roman set_font
162 365.4 moveto 40 (mux1) alignedtext
grestore
% architecture_crossbar_arbiter->architecture_crossbar_mux1
gsave
1 setlinewidth
solid
0 0 0 edgecolor
newpath 100.29 350.77 moveto
111.71 353.31 124.28 356.12 136.07 358.75 curveto
stroke
0 0 0 edgecolor
newpath 135.66 362.25 moveto
146.19 361.01 lineto
137.19 355.41 lineto
closepath fill
1 setlinewidth
solid
0 0 0 edgecolor
newpath 135.66 362.25 moveto
146.19 361.01 lineto
137.19 355.41 lineto
closepath stroke
grestore
% architecture_crossbar_mux2
gsave
1 setlinewidth
solid
0 0 0 nodecolor
182 315 39.1 18.38 ellipse_path stroke
0 0 0 nodecolor
14 /Times-Roman set_font
162 311.4 moveto 40 (mux2) alignedtext
grestore
% architecture_crossbar_arbiter->architecture_crossbar_mux2
gsave
1 setlinewidth
solid
0 0 0 edgecolor
newpath 100.29 333.23 moveto
111.71 330.69 124.28 327.88 136.07 325.25 curveto
stroke
0 0 0 edgecolor
newpath 137.19 328.59 moveto
146.19 322.99 lineto
135.66 321.75 lineto
closepath fill
1 setlinewidth
solid
0 0 0 edgecolor
newpath 137.19 328.59 moveto
146.19 322.99 lineto
135.66 321.75 lineto
closepath stroke
grestore
% architecture_crossbar_mux3
gsave
1 setlinewidth
solid
0 0 0 nodecolor
182 261 39.1 18.38 ellipse_path stroke
0 0 0 nodecolor
14 /Times-Roman set_font
162 257.4 moveto 40 (mux3) alignedtext
grestore
% architecture_crossbar_arbiter->architecture_crossbar_mux3
gsave
1 setlinewidth
solid
0 0 0 edgecolor
newpath 84.04 326.57 moveto
103 313.88 130.05 295.77 150.93 281.8 curveto
stroke
0 0 0 edgecolor
newpath 153.09 284.57 moveto
159.45 276.09 lineto
149.19 278.75 lineto
closepath fill
1 setlinewidth
solid
0 0 0 edgecolor
newpath 153.09 284.57 moveto
159.45 276.09 lineto
149.19 278.75 lineto
closepath stroke
grestore
% architecture_VB0_crossbarIF
gsave
1 setlinewidth
solid
0 0 0 nodecolor
319 510 60.81 18.38 ellipse_path stroke
0 0 0 nodecolor
14 /Times-Roman set_font
284 506.4 moveto 70 (crossbarIF) alignedtext
grestore
% architecture_crossbar_mux0->architecture_VB0_crossbarIF
gsave
1 setlinewidth
solid
0 0 0 edgecolor
newpath 198.82 439.48 moveto
211.98 451.76 231.13 468.33 250 480 curveto
256.8 484.2 264.28 488.11 271.74 491.62 curveto
stroke
0 0 0 edgecolor
newpath 270.57 494.93 moveto
281.13 495.85 lineto
273.45 488.55 lineto
closepath fill
1 setlinewidth
solid
0 0 0 edgecolor
newpath 270.57 494.93 moveto
281.13 495.85 lineto
273.45 488.55 lineto
closepath stroke
grestore
% architecture_VB1_crossbarIF
gsave
1 setlinewidth
solid
0 0 0 nodecolor
319 396 60.81 18.38 ellipse_path stroke
0 0 0 nodecolor
14 /Times-Roman set_font
284 392.4 moveto 70 (crossbarIF) alignedtext
grestore
% architecture_crossbar_mux0->architecture_VB1_crossbarIF
gsave
1 setlinewidth
solid
0 0 0 edgecolor
newpath 218.35 415.84 moveto
230.48 413.45 244.35 410.71 257.83 408.05 curveto
stroke
0 0 0 edgecolor
newpath 258.9 411.41 moveto
268.03 406.04 lineto
257.55 404.54 lineto
closepath fill
1 setlinewidth
solid
0 0 0 edgecolor
newpath 258.9 411.41 moveto
268.03 406.04 lineto
257.55 404.54 lineto
closepath stroke
grestore
% architecture_VB2_crossbarIF
gsave
1 setlinewidth
solid
0 0 0 nodecolor
319 288 60.81 18.38 ellipse_path stroke
0 0 0 nodecolor
14 /Times-Roman set_font
284 284.4 moveto 70 (crossbarIF) alignedtext
grestore
% architecture_crossbar_mux0->architecture_VB2_crossbarIF
gsave
1 setlinewidth
solid
0 0 0 edgecolor
newpath 212.36 410.94 moveto
219 407.05 225.41 402.12 230 396 curveto
253.54 364.61 223.39 338.84 250 310 curveto
252.46 307.33 255.25 304.99 258.25 302.92 curveto
stroke
0 0 0 edgecolor
newpath 260.24 305.82 moveto
267.2 297.83 lineto
256.78 299.73 lineto
closepath fill
1 setlinewidth
solid
0 0 0 edgecolor
newpath 260.24 305.82 moveto
267.2 297.83 lineto
256.78 299.73 lineto
closepath stroke
grestore
% architecture_VB3_crossbarIF
gsave
1 setlinewidth
solid
0 0 0 nodecolor
319 126 60.81 18.38 ellipse_path stroke
0 0 0 nodecolor
14 /Times-Roman set_font
284 122.4 moveto 70 (crossbarIF) alignedtext
grestore
% architecture_crossbar_mux0->architecture_VB3_crossbarIF
gsave
1 setlinewidth
solid
0 0 0 edgecolor
newpath 213.02 411.4 moveto
219.64 407.49 225.88 402.44 230 396 curveto
259.81 349.43 215.61 191.29 250 148 curveto
252.26 145.16 254.88 142.68 257.77 140.51 curveto
stroke
0 0 0 edgecolor
newpath 259.76 143.4 moveto
266.48 135.21 lineto
256.12 137.42 lineto
closepath fill
1 setlinewidth
solid
0 0 0 edgecolor
newpath 259.76 143.4 moveto
266.48 135.21 lineto
256.12 137.42 lineto
closepath stroke
grestore
% architecture_crossbar_mux1->architecture_VB0_crossbarIF
gsave
1 setlinewidth
solid
0 0 0 edgecolor
newpath 212.34 381.08 moveto
218.98 384.97 225.39 389.89 230 396 curveto
253.11 426.64 225.36 450.58 250 480 curveto
254.18 484.99 259.36 489.18 264.97 492.69 curveto
stroke
0 0 0 edgecolor
newpath 263.63 495.94 moveto
274.09 497.65 lineto
266.98 489.79 lineto
closepath fill
1 setlinewidth
solid
0 0 0 edgecolor
newpath 263.63 495.94 moveto
274.09 497.65 lineto
266.98 489.79 lineto
closepath stroke
grestore
% architecture_crossbar_mux1->architecture_VB1_crossbarIF
gsave
1 setlinewidth
solid
0 0 0 edgecolor
newpath 218.35 376.16 moveto
230.48 378.55 244.35 381.29 257.83 383.95 curveto
stroke
0 0 0 edgecolor
newpath 257.55 387.46 moveto
268.03 385.96 lineto
258.9 380.59 lineto
closepath fill
1 setlinewidth
solid
0 0 0 edgecolor
newpath 257.55 387.46 moveto
268.03 385.96 lineto
258.9 380.59 lineto
closepath stroke
grestore
% architecture_crossbar_mux1->architecture_VB2_crossbarIF
gsave
1 setlinewidth
solid
0 0 0 edgecolor
newpath 210.27 356.18 moveto
217.2 352.25 224.26 347.48 230 342 curveto
242.13 330.42 236.75 320.29 250 310 curveto
253.35 307.4 257.02 305.1 260.86 303.07 curveto
stroke
0 0 0 edgecolor
newpath 262.47 306.18 moveto
270.07 298.8 lineto
259.53 299.83 lineto
closepath fill
1 setlinewidth
solid
0 0 0 edgecolor
newpath 262.47 306.18 moveto
270.07 298.8 lineto
259.53 299.83 lineto
closepath stroke
grestore
% architecture_crossbar_mux1->architecture_VB3_crossbarIF
gsave
1 setlinewidth
solid
0 0 0 edgecolor
newpath 212.92 357.33 moveto
219.54 353.43 225.8 348.4 230 342 curveto
277.54 269.52 195.33 215.27 250 148 curveto
252.29 145.18 254.94 142.72 257.84 140.57 curveto
stroke
0 0 0 edgecolor
newpath 259.83 143.46 moveto
266.59 135.3 lineto
256.22 137.46 lineto
closepath fill
1 setlinewidth
solid
0 0 0 edgecolor
newpath 259.83 143.46 moveto
266.59 135.3 lineto
256.22 137.46 lineto
closepath stroke
grestore
% architecture_crossbar_mux2->architecture_VB0_crossbarIF
gsave
1 setlinewidth
solid
0 0 0 edgecolor
newpath 212.73 326.79 moveto
219.36 330.69 225.67 335.69 230 342 curveto
265.05 393.11 212.38 430.75 250 480 curveto
253.9 485.11 258.86 489.36 264.31 492.9 curveto
stroke
0 0 0 edgecolor
newpath 262.78 496.06 moveto
273.22 497.89 lineto
266.2 489.95 lineto
closepath fill
1 setlinewidth
solid
0 0 0 edgecolor
newpath 262.78 496.06 moveto
273.22 497.89 lineto
266.2 489.95 lineto
closepath stroke
grestore
% architecture_crossbar_mux2->architecture_VB1_crossbarIF
gsave
1 setlinewidth
solid
0 0 0 edgecolor
newpath 210.27 327.82 moveto
217.2 331.75 224.26 336.52 230 342 curveto
242.13 353.58 236.75 363.71 250 374 curveto
253.35 376.6 257.02 378.9 260.86 380.93 curveto
stroke
0 0 0 edgecolor
newpath 259.53 384.17 moveto
270.07 385.2 lineto
262.47 377.82 lineto
closepath fill
1 setlinewidth
solid
0 0 0 edgecolor
newpath 259.53 384.17 moveto
270.07 385.2 lineto
262.47 377.82 lineto
closepath stroke
grestore
% architecture_crossbar_mux2->architecture_VB2_crossbarIF
gsave
1 setlinewidth
solid
0 0 0 edgecolor
newpath 218.35 307.84 moveto
230.48 305.45 244.35 302.71 257.83 300.05 curveto
stroke
0 0 0 edgecolor
newpath 258.9 303.41 moveto
268.03 298.04 lineto
257.55 296.54 lineto
closepath fill
1 setlinewidth
solid
0 0 0 edgecolor
newpath 258.9 303.41 moveto
268.03 298.04 lineto
257.55 296.54 lineto
closepath stroke
grestore
% architecture_crossbar_mux2->architecture_VB3_crossbarIF
gsave
1 setlinewidth
solid
0 0 0 edgecolor
newpath 212.74 303.21 moveto
219.37 299.32 225.68 294.31 230 288 curveto
265.5 236.13 209.41 195.99 250 148 curveto
252.34 145.23 255.04 142.8 257.97 140.68 curveto
stroke
0 0 0 edgecolor
newpath 259.96 143.57 moveto
266.79 135.46 lineto
256.4 137.54 lineto
closepath fill
1 setlinewidth
solid
0 0 0 edgecolor
newpath 259.96 143.57 moveto
266.79 135.46 lineto
256.4 137.54 lineto
closepath stroke
grestore
% architecture_crossbar_mux3->architecture_VB0_crossbarIF
gsave
1 setlinewidth
solid
0 0 0 edgecolor
newpath 212.91 272.67 moveto
219.54 276.57 225.8 281.61 230 288 curveto
277.1 359.71 199.3 410.79 250 480 curveto
253.8 485.19 258.69 489.49 264.11 493.05 curveto
stroke
0 0 0 edgecolor
newpath 262.55 496.19 moveto
272.98 498.07 lineto
266 490.1 lineto
closepath fill
1 setlinewidth
solid
0 0 0 edgecolor
newpath 262.55 496.19 moveto
272.98 498.07 lineto
266 490.1 lineto
closepath stroke
grestore
% architecture_crossbar_mux3->architecture_VB1_crossbarIF
gsave
1 setlinewidth
solid
0 0 0 edgecolor
newpath 212.36 273.06 moveto
219 276.95 225.41 281.88 230 288 curveto
253.54 319.39 223.39 345.16 250 374 curveto
252.46 376.67 255.25 379.01 258.25 381.08 curveto
stroke
0 0 0 edgecolor
newpath 256.78 384.27 moveto
267.2 386.17 lineto
260.24 378.18 lineto
closepath fill
1 setlinewidth
solid
0 0 0 edgecolor
newpath 256.78 384.27 moveto
267.2 386.17 lineto
260.24 378.18 lineto
closepath stroke
grestore
% architecture_crossbar_mux3->architecture_VB2_crossbarIF
gsave
1 setlinewidth
solid
0 0 0 edgecolor
newpath 218.35 268.16 moveto
230.48 270.55 244.35 273.29 257.83 275.95 curveto
stroke
0 0 0 edgecolor
newpath 257.55 279.46 moveto
268.03 277.96 lineto
258.9 272.59 lineto
closepath fill
1 setlinewidth
solid
0 0 0 edgecolor
newpath 257.55 279.46 moveto
268.03 277.96 lineto
258.9 272.59 lineto
closepath stroke
grestore
% architecture_crossbar_mux3->architecture_VB3_crossbarIF
gsave
1 setlinewidth
solid
0 0 0 edgecolor
newpath 188.19 242.96 moveto
197.64 218.03 218.03 173.27 250 148 curveto
253.18 145.48 256.66 143.25 260.3 141.28 curveto
stroke
0 0 0 edgecolor
newpath 262.1 144.3 moveto
269.64 136.86 lineto
259.11 137.97 lineto
closepath fill
1 setlinewidth
solid
0 0 0 edgecolor
newpath 262.1 144.3 moveto
269.64 136.86 lineto
259.11 137.97 lineto
closepath stroke
grestore
% architecture_VB0_busIF
gsave
1 setlinewidth
solid
0 0 0 nodecolor
319 564 36.98 18.38 ellipse_path stroke
0 0 0 nodecolor
14 /Times-Roman set_font
300.5 560.4 moveto 37 (busIF) alignedtext
grestore
% architecture_VB0_busIF->architecture_bus0
gsave
1 setlinewidth
solid
0 0 0 edgecolor
newpath 349.15 574.73 moveto
372.27 582.95 404.36 594.36 429.36 603.26 curveto
stroke
0 0 0 edgecolor
newpath 428.31 606.6 moveto
438.91 606.65 lineto
430.66 600 lineto
closepath fill
1 setlinewidth
solid
0 0 0 edgecolor
newpath 428.31 606.6 moveto
438.91 606.65 lineto
430.66 600 lineto
closepath stroke
grestore
% architecture_VB0_busIF->architecture_crossbar_arbiter
gsave
1 setlinewidth
solid
0 0 0 edgecolor
newpath 287.37 554.05 moveto
249 540.64 184.2 513.55 142 472 curveto
111.15 441.62 86.78 397.31 73.12 369.07 curveto
stroke
0 0 0 edgecolor
newpath 76.18 367.34 moveto
68.75 359.8 lineto
69.85 370.33 lineto
closepath fill
1 setlinewidth
solid
0 0 0 edgecolor
newpath 76.18 367.34 moveto
68.75 359.8 lineto
69.85 370.33 lineto
closepath stroke
grestore
% architecture_VB0_busIF->architecture_crossbar_mux0
gsave
1 setlinewidth
solid
0 0 0 edgecolor
newpath 285.35 555.77 moveto
273.25 551.61 260.11 545.57 250 537 curveto
222.37 513.59 203.04 475.96 192.23 450.4 curveto
stroke
0 0 0 edgecolor
newpath 195.38 448.86 moveto
188.38 440.91 lineto
188.9 451.5 lineto
closepath fill
1 setlinewidth
solid
0 0 0 edgecolor
newpath 195.38 448.86 moveto
188.38 440.91 lineto
188.9 451.5 lineto
closepath stroke
grestore
% architecture_VB0_memory
gsave
1 setlinewidth
solid
0 0 0 nodecolor
468 536 51.12 18.38 ellipse_path stroke
0 0 0 nodecolor
14 /Times-Roman set_font
439.5 532.4 moveto 57 (memory) alignedtext
grestore
% architecture_VB0_busIF->architecture_VB0_memory
gsave
1 setlinewidth
solid
0 0 0 edgecolor
newpath 353.93 557.44 moveto
371.37 554.16 392.87 550.12 412.49 546.43 curveto
stroke
0 0 0 edgecolor
newpath 413.37 549.83 moveto
422.55 544.54 lineto
412.08 542.95 lineto
closepath fill
1 setlinewidth
solid
0 0 0 edgecolor
newpath 413.37 549.83 moveto
422.55 544.54 lineto
412.08 542.95 lineto
closepath stroke
grestore
% architecture_VB0_crossbarIF->architecture_VB0_memory
gsave
1 setlinewidth
solid
0 0 0 edgecolor
newpath 371.53 519.17 moveto
384.62 521.45 398.7 523.91 411.95 526.22 curveto
stroke
0 0 0 edgecolor
newpath 411.43 529.68 moveto
421.89 527.95 lineto
412.64 522.79 lineto
closepath fill
1 setlinewidth
solid
0 0 0 edgecolor
newpath 411.43 529.68 moveto
421.89 527.95 lineto
412.64 522.79 lineto
closepath stroke
grestore
% architecture_VB1_busIF
gsave
1 setlinewidth
solid
0 0 0 nodecolor
319 450 36.98 18.38 ellipse_path stroke
0 0 0 nodecolor
14 /Times-Roman set_font
300.5 446.4 moveto 37 (busIF) alignedtext
grestore
% architecture_VB1_busIF->architecture_bus1
gsave
1 setlinewidth
solid
0 0 0 edgecolor
newpath 350.52 440.19 moveto
360.68 435.99 371.5 430.34 380 423 curveto
402.68 403.42 393.47 385.76 416 366 curveto
419.96 362.52 424.52 359.46 429.24 356.78 curveto
stroke
0 0 0 edgecolor
newpath 431.11 359.76 moveto
438.44 352.11 lineto
427.94 353.52 lineto
closepath fill
1 setlinewidth
solid
0 0 0 edgecolor
newpath 431.11 359.76 moveto
438.44 352.11 lineto
427.94 353.52 lineto
closepath stroke
grestore
% architecture_VB1_busIF->architecture_crossbar_arbiter
gsave
1 setlinewidth
solid
0 0 0 edgecolor
newpath 285.67 458.46 moveto
248.5 466.04 187.63 472.81 142 450 curveto
108.54 433.27 85.32 395.42 72.57 369.29 curveto
stroke
0 0 0 edgecolor
newpath 75.6 367.5 moveto
68.2 359.92 lineto
69.26 370.46 lineto
closepath fill
1 setlinewidth
solid
0 0 0 edgecolor
newpath 75.6 367.5 moveto
68.2 359.92 lineto
69.26 370.46 lineto
closepath stroke
grestore
% architecture_VB1_busIF->architecture_crossbar_mux1
gsave
1 setlinewidth
solid
0 0 0 edgecolor
newpath 285.8 441.22 moveto
273.75 436.99 260.52 431.05 250 423 curveto
238.14 413.93 241.2 405.88 230 396 curveto
226.42 392.85 222.42 389.9 218.29 387.19 curveto
stroke
0 0 0 edgecolor
newpath 220.09 384.19 moveto
209.73 381.99 lineto
216.46 390.17 lineto
closepath fill
1 setlinewidth
solid
0 0 0 edgecolor
newpath 220.09 384.19 moveto
209.73 381.99 lineto
216.46 390.17 lineto
closepath stroke
grestore
% architecture_VB1_memory
gsave
1 setlinewidth
solid
0 0 0 nodecolor
468 423 51.12 18.38 ellipse_path stroke
0 0 0 nodecolor
14 /Times-Roman set_font
439.5 419.4 moveto 57 (memory) alignedtext
grestore
% architecture_VB1_busIF->architecture_VB1_memory
gsave
1 setlinewidth
solid
0 0 0 edgecolor
newpath 354.31 443.6 moveto
371.61 440.47 392.84 436.62 412.26 433.1 curveto
stroke
0 0 0 edgecolor
newpath 413 436.52 moveto
422.21 431.3 lineto
411.75 429.64 lineto
closepath fill
1 setlinewidth
solid
0 0 0 edgecolor
newpath 413 436.52 moveto
422.21 431.3 lineto
411.75 429.64 lineto
closepath stroke
grestore
% architecture_VB1_crossbarIF->architecture_VB1_memory
gsave
1 setlinewidth
solid
0 0 0 edgecolor
newpath 371.11 405.44 moveto
384.35 407.84 398.64 410.43 412.06 412.86 curveto
stroke
0 0 0 edgecolor
newpath 411.66 416.35 moveto
422.12 414.69 lineto
412.91 409.46 lineto
closepath fill
1 setlinewidth
solid
0 0 0 edgecolor
newpath 411.66 416.35 moveto
422.12 414.69 lineto
412.91 409.46 lineto
closepath stroke
grestore
% architecture_VB2_busIF
gsave
1 setlinewidth
solid
0 0 0 nodecolor
319 234 36.98 18.38 ellipse_path stroke
0 0 0 nodecolor
14 /Times-Roman set_font
300.5 230.4 moveto 37 (busIF) alignedtext
grestore
% architecture_VB2_busIF->architecture_bus2
gsave
1 setlinewidth
solid
0 0 0 edgecolor
newpath 349.1 223.16 moveto
358.95 219.61 369.94 215.64 380 212 curveto
396.17 206.14 414.01 199.66 429.38 194.07 curveto
stroke
0 0 0 edgecolor
newpath 430.87 197.25 moveto
439.07 190.54 lineto
428.48 190.67 lineto
closepath fill
1 setlinewidth
solid
0 0 0 edgecolor
newpath 430.87 197.25 moveto
439.07 190.54 lineto
428.48 190.67 lineto
closepath stroke
grestore
% architecture_VB2_busIF->architecture_crossbar_arbiter
gsave
1 setlinewidth
solid
0 0 0 edgecolor
newpath 285.67 225.54 moveto
248.5 217.96 187.63 211.19 142 234 curveto
108.54 250.73 85.32 288.58 72.57 314.71 curveto
stroke
0 0 0 edgecolor
newpath 69.26 313.54 moveto
68.2 324.08 lineto
75.6 316.5 lineto
closepath fill
1 setlinewidth
solid
0 0 0 edgecolor
newpath 69.26 313.54 moveto
68.2 324.08 lineto
75.6 316.5 lineto
closepath stroke
grestore
% architecture_VB2_busIF->architecture_crossbar_mux2
gsave
1 setlinewidth
solid
0 0 0 edgecolor
newpath 285.8 242.78 moveto
273.75 247.01 260.52 252.95 250 261 curveto
238.14 270.07 241.2 278.12 230 288 curveto
226.42 291.15 222.42 294.1 218.29 296.81 curveto
stroke
0 0 0 edgecolor
newpath 216.46 293.83 moveto
209.73 302.01 lineto
220.09 299.81 lineto
closepath fill
1 setlinewidth
solid
0 0 0 edgecolor
newpath 216.46 293.83 moveto
209.73 302.01 lineto
220.09 299.81 lineto
closepath stroke
grestore
% architecture_VB2_memory
gsave
1 setlinewidth
solid
0 0 0 nodecolor
468 261 51.12 18.38 ellipse_path stroke
0 0 0 nodecolor
14 /Times-Roman set_font
439.5 257.4 moveto 57 (memory) alignedtext
grestore
% architecture_VB2_busIF->architecture_VB2_memory
gsave
1 setlinewidth
solid
0 0 0 edgecolor
newpath 354.31 240.4 moveto
371.61 243.53 392.84 247.38 412.26 250.9 curveto
stroke
0 0 0 edgecolor
newpath 411.75 254.36 moveto
422.21 252.7 lineto
413 247.48 lineto
closepath fill
1 setlinewidth
solid
0 0 0 edgecolor
newpath 411.75 254.36 moveto
422.21 252.7 lineto
413 247.48 lineto
closepath stroke
grestore
% architecture_VB2_crossbarIF->architecture_VB2_memory
gsave
1 setlinewidth
solid
0 0 0 edgecolor
newpath 371.11 278.56 moveto
384.35 276.16 398.64 273.57 412.06 271.14 curveto
stroke
0 0 0 edgecolor
newpath 412.91 274.54 moveto
422.12 269.31 lineto
411.66 267.65 lineto
closepath fill
1 setlinewidth
solid
0 0 0 edgecolor
newpath 412.91 274.54 moveto
422.12 269.31 lineto
411.66 267.65 lineto
closepath stroke
grestore
% architecture_VB3_busIF
gsave
1 setlinewidth
solid
0 0 0 nodecolor
319 72 36.98 18.38 ellipse_path stroke
0 0 0 nodecolor
14 /Times-Roman set_font
300.5 68.4 moveto 37 (busIF) alignedtext
grestore
% architecture_VB3_busIF->architecture_bus3
gsave
1 setlinewidth
solid
0 0 0 edgecolor
newpath 349.15 61.27 moveto
372.27 53.05 404.36 41.64 429.36 32.74 curveto
stroke
0 0 0 edgecolor
newpath 430.66 36 moveto
438.91 29.35 lineto
428.31 29.4 lineto
closepath fill
1 setlinewidth
solid
0 0 0 edgecolor
newpath 430.66 36 moveto
438.91 29.35 lineto
428.31 29.4 lineto
closepath stroke
grestore
% architecture_VB3_busIF->architecture_crossbar_arbiter
gsave
1 setlinewidth
solid
0 0 0 edgecolor
newpath 286.61 81.3 moveto
274.53 85.61 261.06 91.48 250 99 curveto
164.88 156.87 100.86 265.19 74.38 315.31 curveto
stroke
0 0 0 edgecolor
newpath 71.24 313.76 moveto
69.73 324.24 lineto
77.45 316.99 lineto
closepath fill
1 setlinewidth
solid
0 0 0 edgecolor
newpath 71.24 313.76 moveto
69.73 324.24 lineto
77.45 316.99 lineto
closepath stroke
grestore
% architecture_VB3_busIF->architecture_crossbar_mux3
gsave
1 setlinewidth
solid
0 0 0 edgecolor
newpath 284.68 79.49 moveto
272.5 83.57 259.48 89.75 250 99 curveto
239.85 108.91 208.55 189.95 192.19 233.52 curveto
stroke
0 0 0 edgecolor
newpath 188.88 232.37 moveto
188.66 242.96 lineto
195.44 234.82 lineto
closepath fill
1 setlinewidth
solid
0 0 0 edgecolor
newpath 188.88 232.37 moveto
188.66 242.96 lineto
195.44 234.82 lineto
closepath stroke
grestore
% architecture_VB3_memory
gsave
1 setlinewidth
solid
0 0 0 nodecolor
468 100 51.12 18.38 ellipse_path stroke
0 0 0 nodecolor
14 /Times-Roman set_font
439.5 96.4 moveto 57 (memory) alignedtext
grestore
% architecture_VB3_busIF->architecture_VB3_memory
gsave
1 setlinewidth
solid
0 0 0 edgecolor
newpath 353.93 78.56 moveto
371.37 81.84 392.87 85.88 412.49 89.57 curveto
stroke
0 0 0 edgecolor
newpath 412.08 93.05 moveto
422.55 91.46 lineto
413.37 86.17 lineto
closepath fill
1 setlinewidth
solid
0 0 0 edgecolor
newpath 412.08 93.05 moveto
422.55 91.46 lineto
413.37 86.17 lineto
closepath stroke
grestore
% architecture_VB3_crossbarIF->architecture_VB3_memory
gsave
1 setlinewidth
solid
0 0 0 edgecolor
newpath 371.53 116.83 moveto
384.62 114.55 398.7 112.09 411.95 109.78 curveto
stroke
0 0 0 edgecolor
newpath 412.64 113.21 moveto
421.89 108.05 lineto
411.43 106.32 lineto
closepath fill
1 setlinewidth
solid
0 0 0 edgecolor
newpath 412.64 113.21 moveto
421.89 108.05 lineto
411.43 106.32 lineto
closepath stroke
grestore
endpage
showpage
grestore
%%PageTrailer
%%EndPage: 1
%%Trailer
%%Pages: 1
%%BoundingBox: 36 36 576 492
end
restore
%%EOF
