digraph "Build" {
	graph [
		fontsize = "14"
		fontname = "Times-Roman"
		fontcolor = "black"
		color = "black"
	]
	node [
		fontsize = "14"
		fontname = "Times-Roman"
		fontcolor = "black"
		shape = "ellipse"
		color = "black"
		style = "solid"
	]
	edge [
		fontsize = "14"
		fontname = "Times-Roman"
		fontcolor = "black"
		color = "black"
		style = "solid"
	]
	"RUNAPP" [
		fontsize = "14"
		fontname = "Times-Roman"
		fontcolor = "black"
		shape = "rectangle"
		color = "black"
		style = "solid"
	]
	"RUNAPP_MAP/TRACE" [
		fontsize = "14"
		fontname = "Times-Roman"
		fontcolor = "black"
		shape = "rectangle"
		color = "black"
		style = "solid"
	]
	"RUN" [
		fontsize = "14"
		fontname = "Times-Roman"
		fontcolor = "black"
		shape = "rectangle"
		color = "black"
		style = "solid"
	]
	"RUNARCH" [
		fontsize = "14"
		fontname = "Times-Roman"
		fontcolor = "black"
		shape = "rectangle"
		color = "black"
		style = "solid"
	]
	"RUNARCH_MAP/TRACE" [
		fontsize = "14"
		fontname = "Times-Roman"
		fontcolor = "black"
		shape = "rectangle"
		color = "black"
		style = "solid"
	]
	"$APP_app.yml" [
		fontsize = "14"
		fontname = "Times-Roman"
		fontcolor = "black"
		shape = "ellipse"
		color = "red"
		style = "solid"
	]
	"Class_i.cpp" [
		fontsize = "14"
		fontname = "Times-Roman"
		fontcolor = "black"
		shape = "ellipse"
		color = "red"
		style = "solid"
	]
	"Class_i.h" [
		fontsize = "14"
		fontname = "Times-Roman"
		fontcolor = "black"
		shape = "ellipse"
		color = "red"
		style = "solid"
	]
	"$ARCH_arch.yml" [
		fontsize = "14"
		fontname = "Times-Roman"
		fontcolor = "black"
		shape = "ellipse"
		color = "green"
		style = "solid"
	]
	"Component_i.ps" [
		fontsize = "14"
		fontname = "Times-Roman"
		fontcolor = "black"
		shape = "ellipse"
		color = "green"
		style = "solid"
	]
	"Component_i.pi" [
		fontsize = "14"
		fontname = "Times-Roman"
		fontcolor = "black"
		shape = "ellipse"
		color = "green"
		style = "solid"
	]
	"Class_i.o" [
		fontsize = "14"
		fontname = "Times-Roman"
		fontcolor = "black"
		shape = "ellipse"
		color = "black"
		style = "solid"
	]
	"Class_i_Base.h" [
		fontsize = "14"
		fontname = "Times-Roman"
		fontcolor = "black"
		shape = "ellipse"
		color = "black"
		style = "solid"
	]
	"$APP_stub.o" [
		fontsize = "14"
		fontname = "Times-Roman"
		fontcolor = "black"
		shape = "ellipse"
		color = "black"
		style = "solid"
	]
	"$APP_stub.cpp" [
		fontsize = "14"
		fontname = "Times-Roman"
		fontcolor = "black"
		shape = "ellipse"
		color = "black"
		style = "solid"
	]
	"lib$APP.so" [
		fontsize = "14"
		fontname = "Times-Roman"
		fontcolor = "black"
		shape = "ellipse"
		color = "black"
		style = "solid"
	]
	"$APP_appvirt_map.yml" [
		fontsize = "14"
		fontname = "Times-Roman"
		fontcolor = "black"
		label = "\N"
		shape = "ellipse"
		color = "black"
		style = "solid"
	]
	"$APP$ARCH_map.yml" [
		fontsize = "14"
		fontname = "Times-Roman"
		fontcolor = "black"
		label = "\N"
		shape = "ellipse"
		color = "black"
		style = "solid"
	]
	"$ARCH" [
		fontsize = "14"
		fontname = "Times-Roman"
		fontcolor = "black"
		shape = "ellipse"
		color = "black"
		style = "solid"
	]
	"$ARCH.ps" [
		fontsize = "14"
		fontname = "Times-Roman"
		fontcolor = "black"
		shape = "ellipse"
		color = "black"
		style = "solid"
	]
	"$ARCH.pi" [
		fontsize = "14"
		fontname = "Times-Roman"
		fontcolor = "black"
		shape = "ellipse"
		color = "black"
		style = "solid"
	]
	"$ARCH_virtarch.yml" [
		fontsize = "14"
		fontname = "Times-Roman"
		fontcolor = "black"
		shape = "ellipse"
		color = "black"
		style = "solid"
	]
	"$ARCH_virtual.yml" [
		fontsize = "14"
		fontname = "Times-Roman"
		fontcolor = "black"
		shape = "ellipse"
		color = "black"
		style = "solid"
	]
	{
		graph [
			fontsize = "14"
			fontname = "Times-Roman"
			fontcolor = "black"
			color = "black"
		]
		node [
			fontsize = "14"
			fontname = "Times-Roman"
			fontcolor = "black"
			shape = "rectangle"
			color = "black"
			style = "solid"
		]
		edge [
			fontsize = "14"
			fontname = "Times-Roman"
			fontcolor = "black"
			color = "black"
			style = "solid"
		]
		"RUNAPP"
		"RUNAPP_MAP/TRACE"
		"RUN"
		"RUNARCH"
		"RUNARCH_MAP/TRACE"
	}
	{
		graph [
			fontsize = "14"
			fontname = "Times-Roman"
			fontcolor = "black"
			color = "black"
		]
		node [
			fontsize = "14"
			fontname = "Times-Roman"
			fontcolor = "black"
			shape = "ellipse"
			color = "red"
			style = "solid"
		]
		edge [
			fontsize = "14"
			fontname = "Times-Roman"
			fontcolor = "black"
			color = "black"
			style = "solid"
		]
		"$APP_app.yml"
		"Class_i.cpp"
		"Class_i.h"
	}
	{
		graph [
			fontsize = "14"
			fontname = "Times-Roman"
			fontcolor = "black"
			color = "black"
		]
		node [
			fontsize = "14"
			fontname = "Times-Roman"
			fontcolor = "black"
			shape = "ellipse"
			color = "green"
			style = "solid"
		]
		edge [
			fontsize = "14"
			fontname = "Times-Roman"
			fontcolor = "black"
			color = "black"
			style = "solid"
		]
		"$ARCH_arch.yml"
		"Component_i.ps"
		"Component_i.pi"
	}
	{
		graph [
			fontsize = "14"
			fontname = "Times-Roman"
			fontcolor = "black"
			color = "black"
		]
		node [
			fontsize = "14"
			fontname = "Times-Roman"
			fontcolor = "black"
			shape = "ellipse"
			color = "black"
			style = "solid"
		]
		edge [
			fontsize = "14"
			fontname = "Times-Roman"
			fontcolor = "black"
			color = "black"
			style = "solid"
		]
		"Class_i.o"
		"$APP_stub.o"
	}
	{
		graph [
			fontsize = "14"
			fontname = "Times-Roman"
			fontcolor = "black"
			color = "black"
		]
		node [
			fontsize = "14"
			fontname = "Times-Roman"
			fontcolor = "black"
			shape = "ellipse"
			color = "black"
			style = "solid"
		]
		edge [
			fontsize = "14"
			fontname = "Times-Roman"
			fontcolor = "black"
			color = "black"
			style = "solid"
		]
		"Class_i_Base.h"
		"$APP_stub.cpp"
	}
	{
		graph [
			fontsize = "14"
			fontname = "Times-Roman"
			fontcolor = "black"
			color = "black"
		]
		node [
			fontsize = "14"
			fontname = "Times-Roman"
			fontcolor = "black"
			shape = "ellipse"
			color = "black"
			style = "solid"
		]
		edge [
			fontsize = "14"
			fontname = "Times-Roman"
			fontcolor = "black"
			color = "black"
			style = "solid"
		]
		"$APP_app.yml"
		"lib$APP.so"
	}
	{
		graph [
			fontsize = "14"
			fontname = "Times-Roman"
			fontcolor = "black"
			color = "black"
		]
		node [
			fontsize = "14"
			fontname = "Times-Roman"
			fontcolor = "black"
			shape = "ellipse"
			color = "black"
			style = "solid"
		]
		edge [
			fontsize = "14"
			fontname = "Times-Roman"
			fontcolor = "black"
			color = "black"
			style = "solid"
		]
		"$APP_app.yml"
		"lib$APP.so"
		"$APP_appvirt_map.yml"
	}
	{
		graph [
			fontsize = "14"
			fontname = "Times-Roman"
			fontcolor = "black"
			color = "black"
		]
		node [
			fontsize = "14"
			fontname = "Times-Roman"
			fontcolor = "black"
			shape = "ellipse"
			color = "black"
			style = "solid"
		]
		edge [
			fontsize = "14"
			fontname = "Times-Roman"
			fontcolor = "black"
			color = "black"
			style = "solid"
		]
		"$APP_app.yml"
		"$APP$ARCH_map.yml"
	}
	{
		graph [
			fontsize = "14"
			fontname = "Times-Roman"
			fontcolor = "black"
			color = "black"
		]
		node [
			fontsize = "14"
			fontname = "Times-Roman"
			fontcolor = "black"
			shape = "ellipse"
			color = "black"
			style = "solid"
		]
		edge [
			fontsize = "14"
			fontname = "Times-Roman"
			fontcolor = "black"
			color = "black"
			style = "solid"
		]
		"$APP_app.yml"
		"$ARCH_arch.yml"
	}
	{
		graph [
			fontsize = "14"
			fontname = "Times-Roman"
			fontcolor = "black"
			color = "black"
		]
		node [
			fontsize = "14"
			fontname = "Times-Roman"
			fontcolor = "black"
			shape = "ellipse"
			color = "black"
			style = "solid"
		]
		edge [
			fontsize = "14"
			fontname = "Times-Roman"
			fontcolor = "black"
			color = "black"
			style = "solid"
		]
		"Component_i.ps"
		"Component_i.pi"
		"$ARCH.ps"
		"$ARCH.pi"
	}
	{
		graph [
			fontsize = "14"
			fontname = "Times-Roman"
			fontcolor = "black"
			color = "black"
		]
		node [
			fontsize = "14"
			fontname = "Times-Roman"
			fontcolor = "black"
			shape = "ellipse"
			color = "black"
			style = "solid"
		]
		edge [
			fontsize = "14"
			fontname = "Times-Roman"
			fontcolor = "black"
			color = "black"
			style = "solid"
		]
		"$ARCH_arch.yml"
		"$ARCH_virtual.yml"
	}
	{
		graph [
			fontsize = "14"
			fontname = "Times-Roman"
			fontcolor = "black"
			color = "black"
		]
		node [
			fontsize = "14"
			fontname = "Times-Roman"
			fontcolor = "black"
			shape = "ellipse"
			color = "black"
			style = "solid"
		]
		edge [
			fontsize = "14"
			fontname = "Times-Roman"
			fontcolor = "black"
			color = "black"
			style = "solid"
		]
		"$APP_app.yml"
		"lib$APP.so"
		"$APP_appvirt_map.yml"
		"$ARCH"
		"$ARCH_virtarch.yml"
	}
	{
		graph [
			fontsize = "14"
			fontname = "Times-Roman"
			fontcolor = "black"
			color = "black"
		]
		node [
			fontsize = "14"
			fontname = "Times-Roman"
			fontcolor = "black"
			shape = "ellipse"
			color = "black"
			style = "solid"
		]
		edge [
			fontsize = "14"
			fontname = "Times-Roman"
			fontcolor = "black"
			color = "black"
			style = "solid"
		]
		"$ARCH"
		"$ARCH_virtarch.yml"
	}
	{
		graph [
			fontsize = "14"
			fontname = "Times-Roman"
			fontcolor = "black"
			color = "black"
		]
		node [
			fontsize = "14"
			fontname = "Times-Roman"
			fontcolor = "black"
			shape = "ellipse"
			color = "black"
			style = "solid"
		]
		edge [
			fontsize = "14"
			fontname = "Times-Roman"
			fontcolor = "black"
			color = "black"
			style = "solid"
		]
		"$APP_appvirt_map.yml"
		"$ARCH"
		"$ARCH_virtarch.yml"
	}
	{
		graph [
			fontsize = "14"
			fontname = "Times-Roman"
			fontcolor = "black"
			color = "black"
		]
		node [
			fontsize = "14"
			fontname = "Times-Roman"
			fontcolor = "black"
			shape = "ellipse"
			color = "black"
			style = "solid"
		]
		edge [
			fontsize = "14"
			fontname = "Times-Roman"
			fontcolor = "black"
			color = "black"
			style = "solid"
		]
		"$APP_app.yml"
		"$ARCH_arch.yml"
		"$APP$ARCH_map.yml"
	}
	"Class_i.h" -> "Class_i_Base.h" [
		fontsize = "14"
		fontname = "Times-Roman"
		fontcolor = "black"
		color = "black"
		style = "solid"
	]
	"Class_i.cpp" -> "Class_i.h" [
		fontsize = "14"
		fontname = "Times-Roman"
		fontcolor = "black"
		color = "black"
		style = "solid"
	]
	"Class_i.o" -> "Class_i.cpp" [
		fontsize = "14"
		fontname = "Times-Roman"
		fontcolor = "black"
		color = "black"
		style = "solid"
	]
	"$APP_stub.o" -> "$APP_stub.cpp" [
		fontsize = "14"
		fontname = "Times-Roman"
		fontcolor = "black"
		color = "black"
		style = "solid"
	]
	"lib$APP.so" -> "Class_i.o" [
		fontsize = "14"
		fontname = "Times-Roman"
		fontcolor = "black"
		color = "black"
		style = "solid"
	]
	"lib$APP.so" -> "$APP_stub.o" [
		fontsize = "14"
		fontname = "Times-Roman"
		fontcolor = "black"
		color = "black"
		style = "solid"
	]
	"Class_i_Base.h" -> "$APP_app.yml" [
		fontsize = "14"
		fontname = "Times-Roman"
		fontcolor = "black"
		color = "black"
		style = "solid"
	]
	"$APP_stub.cpp" -> "$APP_app.yml" [
		fontsize = "14"
		fontname = "Times-Roman"
		fontcolor = "black"
		color = "black"
		style = "solid"
	]
	"RUNAPP" -> "lib$APP.so" [
		fontsize = "14"
		fontname = "Times-Roman"
		fontcolor = "black"
		color = "black"
		style = "solid"
	]
	"RUNAPP" -> "$APP_app.yml" [
		fontsize = "14"
		fontname = "Times-Roman"
		fontcolor = "black"
		color = "black"
		style = "solid"
	]
	"RUNAPP_MAP/TRACE" -> "lib$APP.so" [
		fontsize = "14"
		fontname = "Times-Roman"
		fontcolor = "black"
		color = "black"
		style = "solid"
	]
	"RUNAPP_MAP/TRACE" -> "$APP_app.yml" [
		fontsize = "14"
		fontname = "Times-Roman"
		fontcolor = "black"
		color = "black"
		style = "solid"
	]
	"RUNAPP_MAP/TRACE" -> "$APP_appvirt_map.yml" [
		fontsize = "14"
		fontname = "Times-Roman"
		fontcolor = "black"
		color = "black"
		style = "solid"
	]
	"$APP_appvirt_map.yml" -> "$APP_app.yml" [
		fontsize = "14"
		fontname = "Times-Roman"
		fontcolor = "black"
		color = "black"
		style = "solid"
	]
	"$APP$ARCH_map.yml" -> "$APP_app.yml" [
		fontsize = "14"
		fontname = "Times-Roman"
		fontcolor = "black"
		color = "black"
		style = "solid"
	]
	"$APP$ARCH_map.yml" -> "$ARCH_arch.yml" [
		fontsize = "14"
		fontname = "Times-Roman"
		fontcolor = "black"
		color = "black"
		style = "solid"
	]
	"$ARCH" -> "$ARCH.pi" [
		fontsize = "14"
		fontname = "Times-Roman"
		fontcolor = "black"
		color = "black"
		style = "solid"
	]
	"$ARCH" -> "Component_i.pi" [
		fontsize = "14"
		fontname = "Times-Roman"
		fontcolor = "black"
		color = "black"
		style = "solid"
	]
	"$ARCH" -> "$ARCH.ps" [
		fontsize = "14"
		fontname = "Times-Roman"
		fontcolor = "black"
		color = "black"
		style = "solid"
	]
	"$ARCH" -> "Component_i.ps" [
		fontsize = "14"
		fontname = "Times-Roman"
		fontcolor = "black"
		color = "black"
		style = "solid"
	]
	"$ARCH_virtarch.yml" -> "$ARCH_virtual.yml" [
		fontsize = "14"
		fontname = "Times-Roman"
		fontcolor = "black"
		color = "black"
		style = "solid"
	]
	"$ARCH_virtarch.yml" -> "$ARCH_arch.yml" [
		fontsize = "14"
		fontname = "Times-Roman"
		fontcolor = "black"
		color = "black"
		style = "solid"
	]
	"$ARCH.ps" -> "$ARCH_virtarch.yml" [
		fontsize = "14"
		fontname = "Times-Roman"
		fontcolor = "black"
		color = "black"
		style = "solid"
	]
	"RUN" -> "$ARCH_virtarch.yml" [
		fontsize = "14"
		fontname = "Times-Roman"
		fontcolor = "black"
		color = "black"
		style = "solid"
	]
	"RUN" -> "lib$APP.so" [
		fontsize = "14"
		fontname = "Times-Roman"
		fontcolor = "black"
		color = "black"
		style = "solid"
	]
	"RUN" -> "$APP_app.yml" [
		fontsize = "14"
		fontname = "Times-Roman"
		fontcolor = "black"
		color = "black"
		style = "solid"
	]
	"RUN" -> "$APP_appvirt_map.yml" [
		fontsize = "14"
		fontname = "Times-Roman"
		fontcolor = "black"
		color = "black"
		style = "solid"
	]
	"RUN" -> "$ARCH" [
		fontsize = "14"
		fontname = "Times-Roman"
		fontcolor = "black"
		color = "black"
		style = "solid"
	]
	"RUNARCH" -> "$ARCH_virtarch.yml" [
		fontsize = "14"
		fontname = "Times-Roman"
		fontcolor = "black"
		color = "black"
		style = "solid"
	]
	"RUNARCH" -> "$ARCH" [
		fontsize = "14"
		fontname = "Times-Roman"
		fontcolor = "black"
		color = "black"
		style = "solid"
	]
	"RUNARCH_MAP/TRACE" -> "$ARCH_virtarch.yml" [
		fontsize = "14"
		fontname = "Times-Roman"
		fontcolor = "black"
		color = "black"
		style = "solid"
	]
	"RUNARCH_MAP/TRACE" -> "$APP_appvirt_map.yml" [
		fontsize = "14"
		fontname = "Times-Roman"
		fontcolor = "black"
		color = "black"
		style = "solid"
	]
	"RUNARCH_MAP/TRACE" -> "$ARCH" [
		fontsize = "14"
		fontname = "Times-Roman"
		fontcolor = "black"
		color = "black"
		style = "solid"
	]
	"$ARCH_virtual.yml" -> "$APP_app.yml" [
		fontsize = "14"
		fontname = "Times-Roman"
		fontcolor = "black"
		color = "black"
		style = "solid"
	]
	"$ARCH_virtual.yml" -> "$APP$ARCH_map.yml" [
		fontsize = "14"
		fontname = "Times-Roman"
		fontcolor = "black"
		color = "black"
		style = "solid"
	]
	"$ARCH_virtual.yml" -> "$ARCH_arch.yml" [
		fontsize = "14"
		fontname = "Times-Roman"
		fontcolor = "black"
		color = "black"
		style = "solid"
	]
}
